<?xml version="1.0" encoding="utf-8"?>
<!-- Generator: Adobe Illustrator 19.0.0, SVG Export Plug-In . SVG Version: 6.00 Build 0)  -->
<svg version="1.0" id="Capa_1" xmlns="http://www.w3.org/2000/svg" xmlns:xlink="http://www.w3.org/1999/xlink" x="0px" y="0px"
	 viewBox="0 0 21.8 21.8" style="enable-background:new 0 0 21.8 21.8;" xml:space="preserve">
<style type="text/css">
	.st0{clip-path:url(#SVGID_2_);fill:#FFFFFF;}
</style>
<g>
	<defs>
		<rect id="SVGID_1_" y="0" width="21.8" height="21.8"/>
	</defs>
	<clipPath id="SVGID_2_">
		<use xlink:href="#SVGID_1_"  style="overflow:visible;"/>
	</clipPath>
	<path class="st0" d="M21.4,6.7l-1.8-1.8L21,3.5c0.1-0.1,0.2-0.3,0.2-0.5c0-0.2-0.1-0.3-0.2-0.5l-1.8-1.8c-0.2-0.2-0.7-0.2-0.9,0
		l-1.4,1.4l-1.8-1.8c-0.5-0.5-1.3-0.5-1.8,0c-0.5,0.5-0.5,1.3,0,1.8l6.3,6.3C20.1,9,21,9,21.4,8.5C21.9,8,21.9,7.2,21.4,6.7"/>
	<path class="st0" d="M8.5,19.7l-6.3-6.3c-0.5-0.5-1.3-0.5-1.8,0c-0.5,0.5-0.5,1.3,0,1.8l1.8,1.8l-1.4,1.4c-0.1,0.1-0.2,0.3-0.2,0.5
		s0.1,0.3,0.2,0.5L2.6,21c0.1,0.1,0.3,0.2,0.5,0.2s0.3-0.1,0.5-0.2l1.4-1.4l1.8,1.8C7.2,22,8,22,8.5,21.5S9,20.2,8.5,19.7"/>
	<polygon class="st0" points="11.5,7.6 7.6,11.5 10.3,14.2 14.2,10.3 	"/>
	<path class="st0" d="M19.6,10.3l-8.1-8.1c-0.5-0.5-1.3-0.5-1.8,0S9.2,3.5,9.7,4l8.1,8.1c0.5,0.5,1.3,0.5,1.8,0
		C20.1,11.6,20.1,10.8,19.6,10.3"/>
	<path class="st0" d="M12.1,17.8L4,9.7c-0.5-0.5-1.3-0.5-1.8,0c-0.5,0.5-0.5,1.3,0,1.8l8.1,8.1c0.5,0.5,1.3,0.5,1.8,0
		C12.6,19.2,12.6,18.3,12.1,17.8"/>
</g>
</svg>
