<?xml version="1.0" encoding="utf-8"?>
<!-- Generator: Adobe Illustrator 19.0.0, SVG Export Plug-In . SVG Version: 6.00 Build 0)  -->
<svg version="1.0" id="Layer_1" xmlns="http://www.w3.org/2000/svg" xmlns:xlink="http://www.w3.org/1999/xlink" x="0px" y="0px"
	 viewBox="0 0 21.8 21.8" style="enable-background:new 0 0 21.8 21.8;" xml:space="preserve">
<style type="text/css">
	.st0{clip-path:url(#SVGID_2_);fill:#FFFFFF;}
</style>
<g>
	<defs>
		<rect id="SVGID_1_" x="0" y="1.5" width="28.2" height="18.4"/>
	</defs>
	<clipPath id="SVGID_2_">
		<use xlink:href="#SVGID_1_"  style="overflow:visible;"/>
	</clipPath>
	<path class="st0" d="M27.2,7.9c0,1.6-0.3,2.2-0.5,2.7c-0.2,0.4-0.4,0.7-0.9,0.8c-0.4,0.2-1.1,0.3-1.3,0.3c-0.3,0-1.3,0.4-2-0.3
		c-1.1-1.1-5-4.9-5-4.9s-0.7-0.7-1.8-0.1c-1,0.5-2.5,1.3-3.1,1.6c-1.2,0.6-2.1-0.4-2.1-1.1c0-0.6,0.4-1,0.9-1.3
		c1.4-0.8,4.4-2.5,5.6-3.2C17.8,2,18.3,2,19.4,2.8c1.3,1.1,2.4,2,2.4,2s0.4,0.3,1,0.2c1.1-0.2,2.6-0.6,3.3-0.7
		c0.2-0.1,0.5,0.1,0.6,0.4C26.8,5.3,27.2,6.2,27.2,7.9z M10.9,16.3c0.2-0.5,0.1-1-0.2-1.4c-0.3-0.3-0.8-0.4-1.3-0.3
		c0.1-0.4,0.1-0.9-0.3-1.3C8.8,13,8.3,12.9,7.8,13c0.1-0.4,0.1-0.9-0.3-1.3c-0.5-0.5-1.4-0.5-2,0.1c-0.6,0.6-1,1.6-0.4,2.2
		c0.5,0.6,1.1,0.2,1.6,0.1c-0.1,0.4-0.5,0.9,0,1.5c0.5,0.6,1.1,0.2,1.6,0.1c-0.1,0.4-0.5,0.9,0,1.5c0.5,0.5,1.2,0.3,1.7,0.1
		c-0.2,0.5-0.6,1-0.1,1.6c0.5,0.6,1.7,0.3,2.3-0.2c0.6-0.6,0.6-1.4,0.1-2C11.9,16.2,11.4,16.2,10.9,16.3 M21.5,12.6
		c-4.2-4.2-2.2-2.2-4.5-4.5c0,0-0.7-0.7-1.6-0.3c-0.6,0.3-1.4,0.7-2.1,0.9c-0.7,0.4-1.2,0.5-1.4,0.5c-1.3,0-2.4-1.1-2.4-2.3
		c0-0.8,0.4-1.6,1.1-2c0.9-0.6,3.1-1.8,3.1-1.8s-0.7-0.8-2.1-0.8c-1.4,0-4.4,2-4.4,2S6.4,4.8,5.2,4.3l-2-0.7C3,3.5,2.8,3.6,2.6,3.8
		c-0.3,0.4-1,1.5-0.9,3.8c0,1.7,0.3,2.7,0.6,3.3c0.2,0.4,0.5,0.8,0.9,1C3.4,11.9,3.7,12,3.8,12c0.2,0,0.3,0,0.4-0.2
		c0.1-0.3,0.3-0.6,0.6-0.8c1-0.9,2.7-1,3.6,0c0.3,0.3,0.5,0.6,0.6,1c0.4,0.1,0.7,0.3,1,0.6c0.3,0.3,0.5,0.6,0.6,1
		c0.4,0.1,0.7,0.3,1,0.6c0.3,0.3,0.5,0.7,0.6,1.1c0.4,0.1,0.7,0.3,1,0.6c0.5,0.6,0.7,1.3,0.6,2.1c0,0,0,0,0,0c0,0,0.3,0.4,0.5,0.6
		c0.4,0.4,1.1,0.4,1.5,0c0.4-0.4,0.4-1.1,0-1.5c0,0-1.4-1.5-1.3-1.6c0.1-0.1,1.9,1.8,2,1.8c0.4,0.4,1.1,0.4,1.5,0
		c0.4-0.4,0.4-1.1,0-1.5c0,0-0.1-0.1-0.1-0.1c0,0-1.8-1.6-1.7-1.8c0.1-0.1,2.4,2,2.4,2c0.4,0.4,1,0.4,1.4,0c0.4-0.4,0.4-1,0.1-1.4
		c0,0-1.7-1.8-1.6-1.9c0.1-0.1,1.8,1.6,1.8,1.6c0.4,0.4,1.1,0.4,1.5,0C21.9,13.7,21.9,13,21.5,12.6C21.5,12.6,21.5,12.6,21.5,12.6"
		/>
</g>
</svg>
