<?xml version="1.0" encoding="utf-8"?>
<!-- Generator: Adobe Illustrator 19.0.0, SVG Export Plug-In . SVG Version: 6.00 Build 0)  -->
<svg version="1.0" id="Layer_1" xmlns="http://www.w3.org/2000/svg" xmlns:xlink="http://www.w3.org/1999/xlink" x="0px" y="0px"
	 viewBox="0 0 21.8 21.8" style="enable-background:new 0 0 21.8 21.8;" xml:space="preserve">
<style type="text/css">
	.st0{clip-path:url(#SVGID_2_);fill:#FFFFFF;}
	.st1{fill:#FFFFFF;}
</style>
<g>
	<defs>
		<rect id="SVGID_1_" x="199" y="-21.9" width="28.2" height="18.4"/>
	</defs>
	<clipPath id="SVGID_2_">
		<use xlink:href="#SVGID_1_"  style="overflow:visible;"/>
	</clipPath>
	<path class="st0" d="M226.3-15.4c0,1.6-0.3,2.2-0.5,2.7c-0.2,0.4-0.4,0.7-0.9,0.8c-0.4,0.2-1.1,0.3-1.3,0.3c-0.3,0-1.3,0.4-2-0.3
		c-1.1-1.1-5-4.9-5-4.9s-0.7-0.7-1.8-0.1c-1,0.5-2.5,1.3-3.1,1.6c-1.2,0.6-2.1-0.4-2.1-1.1c0-0.6,0.4-1,0.9-1.3
		c1.4-0.8,4.4-2.5,5.6-3.2c0.7-0.4,1.3-0.4,2.3,0.4c1.3,1.1,2.4,2,2.4,2s0.4,0.3,1,0.2c1.1-0.2,2.6-0.6,3.3-0.7
		c0.2-0.1,0.5,0.1,0.6,0.4C225.8-18,226.2-17.2,226.3-15.4z M209.9-7c0.2-0.5,0.1-1-0.2-1.4c-0.3-0.3-0.8-0.4-1.3-0.3
		c0.1-0.4,0.1-0.9-0.3-1.3c-0.3-0.3-0.8-0.4-1.3-0.3c0.1-0.4,0.1-0.9-0.3-1.3c-0.5-0.5-1.4-0.5-2,0.1c-0.6,0.6-1,1.6-0.4,2.2
		c0.5,0.6,1.1,0.2,1.6,0.1c-0.1,0.4-0.5,0.9,0,1.5c0.5,0.6,1.1,0.2,1.6,0.1c-0.1,0.4-0.5,0.9,0,1.5c0.5,0.5,1.2,0.3,1.7,0.1
		c-0.2,0.5-0.6,1-0.1,1.6c0.5,0.6,1.7,0.3,2.3-0.2c0.6-0.6,0.6-1.4,0.1-2C210.9-7.1,210.4-7.2,209.9-7 M220.5-10.7
		c-4.2-4.2-2.2-2.2-4.5-4.5c0,0-0.7-0.7-1.6-0.3c-0.6,0.3-1.4,0.7-2.1,0.9c-0.7,0.4-1.2,0.5-1.4,0.5c-1.3,0-2.4-1.1-2.4-2.3
		c0-0.8,0.4-1.6,1.1-2c0.9-0.6,3.1-1.8,3.1-1.8s-0.7-0.8-2.1-0.8c-1.4,0-4.4,2-4.4,2s-0.9,0.5-2.1,0.1l-2-0.7
		c-0.2-0.1-0.4,0-0.5,0.2c-0.3,0.4-1,1.5-0.9,3.8c0,1.7,0.3,2.7,0.6,3.3c0.2,0.4,0.5,0.8,0.9,1c0.1,0.1,0.4,0.2,0.6,0.2
		c0.2,0,0.3,0,0.4-0.2c0.1-0.3,0.3-0.6,0.6-0.8c1-0.9,2.7-1,3.6,0c0.3,0.3,0.5,0.6,0.6,1c0.4,0.1,0.7,0.3,1,0.6
		c0.3,0.3,0.5,0.6,0.6,1c0.4,0.1,0.7,0.3,1,0.6c0.3,0.3,0.5,0.7,0.6,1.1c0.4,0.1,0.7,0.3,1,0.6c0.5,0.6,0.7,1.3,0.6,2.1c0,0,0,0,0,0
		c0,0,0.3,0.4,0.5,0.6c0.4,0.4,1.1,0.4,1.5,0c0.4-0.4,0.4-1.1,0-1.5c0,0-1.4-1.5-1.3-1.6c0.1-0.1,1.9,1.8,2,1.8
		c0.4,0.4,1.1,0.4,1.5,0c0.4-0.4,0.4-1.1,0-1.5c0,0-0.1-0.1-0.1-0.1c0,0-1.8-1.6-1.7-1.8c0.1-0.1,2.4,2,2.4,2c0.4,0.4,1,0.4,1.4,0
		c0.4-0.4,0.4-1,0.1-1.4c0,0-1.7-1.8-1.6-1.9c0.1-0.1,1.8,1.6,1.8,1.6c0.4,0.4,1.1,0.4,1.5,0C221-9.7,221-10.3,220.5-10.7
		C220.5-10.7,220.5-10.7,220.5-10.7"/>
</g>
<g>
	<path class="st1" d="M-60.9,70.3c2,0,3.6-1.6,3.6-3.6c0-2-1.6-3.6-3.6-3.6c-2,0-3.6,1.6-3.6,3.6C-64.4,68.7-62.8,70.3-60.9,70.3"/>
	<path class="st1" d="M-48.9,72.1c1.6,0,2.9-1.3,2.9-2.9c0-1.6-1.3-2.9-2.9-2.9c-1.6,0-2.9,1.3-2.9,2.9
		C-51.8,70.8-50.5,72.1-48.9,72.1"/>
	<path class="st1" d="M-41.3,66.6c-0.2-0.3-0.5-0.4-0.8-0.4c0,0-0.1,0-0.1,0c-0.6,0-1.2,0.5-1.2,1.1c-0.1,1-0.3,2.4-0.5,2.8
		c-0.2,0.3-1.2,1.3-2.3,2.2c-0.2,0.2-0.5,0.3-0.8,0.3h-3.2c-0.4,0-0.7-0.1-1-0.4c-0.7-0.7-1.4-1.3-1.8-1.7c0.8-0.8,0.9-1.1,1-1.2
		c0.6-1.2,0.9-4,1-4.6c0.1-0.8-0.5-1.6-1.4-1.7c-0.2,0-0.5,0-0.9,0.3c-0.5,0.4-0.7,0.9-0.8,1.5c-0.1,0.5-0.1,1.1-0.2,1.6
		c-0.2-0.2-0.5-0.3-0.8-0.3c0,0-0.1,0-0.1,0c-0.3,0-0.6,0.2-0.8,0.4c-0.2,0.3-0.3,0.6-0.3,0.9c0,0.2,0.1,1,0.3,1.9
		c-0.5,0.4-1,0.9-1.6,1.5c-0.2,0.2-0.4,0.2-0.6,0.2h-4.9c-0.7-0.6-1.3-1.2-1.8-1.7c0.2-0.8,0.2-1.6,0.3-1.9c0-0.3-0.1-0.6-0.3-0.9
		c-0.2-0.3-0.5-0.4-0.8-0.4c0,0-0.1,0-0.1,0c-0.3,0-0.6,0.1-0.8,0.3c-0.1-0.6-0.2-1.4-0.3-2c-0.1-0.8-0.7-1.4-1.5-1.4
		c-0.1,0-0.1,0-0.2,0c-0.4,0-0.8,0.2-1,0.5c-0.3,0.3-0.4,0.7-0.3,1.1c0.1,0.5,0.4,3.3,1,4.6c0.1,0.2,0.2,0.4,1,1.2
		c-0.5,0.5-1.4,1.3-2.3,2.1h-4.3c-1.2-1.1-2.4-2.2-2.7-2.6c-0.2-0.4-0.4-1.8-0.5-2.8c-0.1-0.6-0.6-1.1-1.2-1.1c0,0-0.1,0-0.1,0
		c-0.3,0-0.6,0.2-0.8,0.4c-0.2,0.3-0.3,0.6-0.3,0.9c0,0.4,0.3,2.7,0.8,3.7c0.4,0.7,2.2,2.4,3.9,3.9l0,14c0,0.6,0.4,1.2,1,1.3
		c0.8,0.2,1.5-0.5,1.5-1.3v-7.6h0.8l0,7.5c0,0.6,0.4,1.2,1,1.3c0.8,0.2,1.5-0.5,1.5-1.3V75.3c1.2-1,2.5-2.2,3.3-3.1c0,0,0,0,0,0
		c0.8,0.7,1.5,1.4,2,1.8l0,16.6c0,0.8,0.5,1.5,1.3,1.6c1,0.2,1.9-0.6,1.9-1.5V82h1l0,8.7c0,0.8,0.5,1.5,1.3,1.6
		c1,0.2,1.9-0.6,1.9-1.5l0-15.9c0-0.3,0.1-0.5,0.3-0.7c0.4-0.4,1.1-1,1.8-1.6c0.1-0.1,0.1-0.1,0.2-0.2c0.7,0.8,1.5,1.8,2.5,2.7
		c0.1,0.1,0.2,0.3,0.2,0.5l-0.2,13.7c0,0.7,1.1,1.3,1.8,1.3c0.7,0,1.3-0.6,1.3-1.3v-7.6h0.8v7.6c0,0.7,0.6,1.3,1.3,1.3
		c0.7,0,1.7-0.6,1.7-1.3l0-13.7c0-0.2,0.1-0.3,0.2-0.4c1.6-1.4,3.1-3,3.5-3.8c0.5-1,0.7-3.3,0.8-3.7C-40.9,67.2-41,66.9-41.3,66.6"
		/>
	<path class="st1" d="M-72.8,72.1c1.6,0,2.9-1.3,2.9-2.9c0-1.6-1.3-2.9-2.9-2.9s-2.9,1.3-2.9,2.9C-75.7,70.8-74.4,72.1-72.8,72.1"/>
</g>
<path class="st1" d="M9.5,5.2c0-1.8,1.5-3.3,3.3-3.3S16,3.4,16,5.2c0,1.8-1.5,3.3-3.3,3.3S9.5,7,9.5,5.2"/>
<path class="st1" d="M9,20.9C9,20.9,8.9,21,8.9,21l0.6,15.4c0,0.8,0.7,1.4,1.5,1.4c0.8,0,1.3-0.7,1.3-1.5l0-12.7
	c0.2,0,0.4,0.1,0.6,0.1s0.4,0,0.6-0.1l0,7.9c0,0.8,0.6,1.4,1.3,1.5c0.8,0,1.5-0.6,1.5-1.4l0.1-10.5v-2.5c0,0,0-0.1-0.1-0.1
	c-0.6,0.3-1.6,0.8-2.4,1.1C13,20,11.1,20.6,9,20.9z"/>
<path class="st1" d="M8.6,11.8c0.1,0.1,0.2,0.2,0.3,0.3C9,12.2,9,12.3,9,12.4l-0.1,4.3c0,0.1,0.1,0.2,0.2,0.2c1.1-0.2,2.7-0.6,3.7-1
	c1.2-0.5,2.2-1,3.3-1.6c0.1-0.1,0.2-0.2,0.2-0.3l0-1.7c0-0.1,0-0.3,0-0.4l7-7c0.5-0.5,0.5-1.4,0-2c-0.5-0.5-1.4-0.5-2,0l-6.7,6.7
	C14.2,9.2,13.5,9,12.8,9c-0.8,0-1.6,0.3-2.2,0.8L3.7,2.9c-0.5-0.5-1.4-0.5-2,0c-0.5,0.5-0.5,1.4,0,2L8.6,11.8z"/>
<path class="st1" d="M24.9,12.5c-3.8,0.2-7.1,1.3-11,3.3c-1.9,1-3.9,1.5-5.8,1.6c-0.9,0-1.7,0-2.6-0.1c-0.8-0.1-1.3-0.2-1.8-0.5
	c-0.1,0-0.2,0-0.3,0.1l-1.6,2.4c0,0.1,0,0.2,0.1,0.2c1,0.6,2,0.9,3.2,1c1,0.1,2,0.1,3.1,0c2.4-0.1,4.9-0.8,7.1-1.9l0,0
	c3.5-1.9,6.4-2.7,9.7-3c2.4-0.1,3.2,0.3,5.4,1.6l0.6,0.4l1.6-2.7l-0.6-0.4C29.8,13.2,28.3,12.3,24.9,12.5"/>
<rect x="29.2" y="1.3" transform="matrix(0.7274 0.6863 -0.6863 0.7274 9.421 -19.9581)" class="st1" width="1.2" height="1.2"/>
<rect x="29.2" y="5.2" class="st1" width="0.6" height="0.6"/>
<rect x="19.2" y="2" transform="matrix(-0.7087 0.7056 -0.7056 -0.7087 35.4423 -9.6264)" class="st1" width="1.1" height="1.1"/>
<rect x="1.1" y="5.6" transform="matrix(-0.9421 -0.3354 0.3354 -0.9421 0.6976 11.925)" class="st1" width="0.6" height="0.6"/>
<polygon class="st1" points="3.6,9 2.5,8.3 1.8,9.4 2.8,10.1 "/>
<rect x="4.2" y="11.3" transform="matrix(0.3424 0.9395 -0.9395 0.3424 14.6248 3.2645)" class="st1" width="1.6" height="1.6"/>
<polygon class="st1" points="6.9,4.6 7.7,5.2 8.3,4.4 7.5,3.8 "/>
<rect x="17.1" y="3.7" transform="matrix(0.9214 0.3885 -0.3885 0.9214 3.0128 -6.5195)" class="st1" width="1" height="1"/>
<path class="st1" d="M6.7,2.3C7.2,2.6,7.9,3,8.3,2.6l0.3,0.3C7.9,3.4,7.1,3,6.5,2.6c-0.3-0.2-1-0.3-1.3-0.3l0.1-0.4
	C5.7,1.9,6.3,1.9,6.7,2.3z"/>
<path class="st1" d="M33.7,5.8L33.7,5.8l0.4,0.1l0-0.1c0.1-1.3,0.3-2.3,1.5-2.3V3.1C33.9,3.1,33.8,4.8,33.7,5.8"/>
</svg>
