<?xml version="1.0" encoding="utf-8"?>
<!-- Generator: Adobe Illustrator 19.0.0, SVG Export Plug-In . SVG Version: 6.00 Build 0)  -->
<svg version="1.0" id="Layer_1" xmlns="http://www.w3.org/2000/svg" xmlns:xlink="http://www.w3.org/1999/xlink" x="0px" y="0px"
	 viewBox="0 0 21.8 21.8" style="enable-background:new 0 0 21.8 21.8;" xml:space="preserve">
<style type="text/css">
	.st0{clip-path:url(#SVGID_2_);fill:#FFFFFF;}
	.st1{fill:#FFFFFF;}
</style>
<g>
	<defs>
		<rect id="SVGID_1_" x="199" y="-21.9" width="28.2" height="18.4"/>
	</defs>
	<clipPath id="SVGID_2_">
		<use xlink:href="#SVGID_1_"  style="overflow:visible;"/>
	</clipPath>
	<path class="st0" d="M226.3-15.4c0,1.6-0.3,2.2-0.5,2.7c-0.2,0.4-0.4,0.7-0.9,0.8c-0.4,0.2-1.1,0.3-1.3,0.3c-0.3,0-1.3,0.4-2-0.3
		c-1.1-1.1-5-4.9-5-4.9s-0.7-0.7-1.8-0.1c-1,0.5-2.5,1.3-3.1,1.6c-1.2,0.6-2.1-0.4-2.1-1.1c0-0.6,0.4-1,0.9-1.3
		c1.4-0.8,4.4-2.5,5.6-3.2c0.7-0.4,1.3-0.4,2.3,0.4c1.3,1.1,2.4,2,2.4,2s0.4,0.3,1,0.2c1.1-0.2,2.6-0.6,3.3-0.7
		c0.2-0.1,0.5,0.1,0.6,0.4C225.8-18,226.2-17.2,226.3-15.4z M209.9-7c0.2-0.5,0.1-1-0.2-1.4c-0.3-0.3-0.8-0.4-1.3-0.3
		c0.1-0.4,0.1-0.9-0.3-1.3c-0.3-0.3-0.8-0.4-1.3-0.3c0.1-0.4,0.1-0.9-0.3-1.3c-0.5-0.5-1.4-0.5-2,0.1c-0.6,0.6-1,1.6-0.4,2.2
		c0.5,0.6,1.1,0.2,1.6,0.1c-0.1,0.4-0.5,0.9,0,1.5c0.5,0.6,1.1,0.2,1.6,0.1c-0.1,0.4-0.5,0.9,0,1.5c0.5,0.5,1.2,0.3,1.7,0.1
		c-0.2,0.5-0.6,1-0.1,1.6c0.5,0.6,1.7,0.3,2.3-0.2c0.6-0.6,0.6-1.4,0.1-2C210.9-7.1,210.4-7.2,209.9-7 M220.5-10.7
		c-4.2-4.2-2.2-2.2-4.5-4.5c0,0-0.7-0.7-1.6-0.3c-0.6,0.3-1.4,0.7-2.1,0.9c-0.7,0.4-1.2,0.5-1.4,0.5c-1.3,0-2.4-1.1-2.4-2.3
		c0-0.8,0.4-1.6,1.1-2c0.9-0.6,3.1-1.8,3.1-1.8s-0.7-0.8-2.1-0.8c-1.4,0-4.4,2-4.4,2s-0.9,0.5-2.1,0.1l-2-0.7
		c-0.2-0.1-0.4,0-0.5,0.2c-0.3,0.4-1,1.5-0.9,3.8c0,1.7,0.3,2.7,0.6,3.3c0.2,0.4,0.5,0.8,0.9,1c0.1,0.1,0.4,0.2,0.6,0.2
		c0.2,0,0.3,0,0.4-0.2c0.1-0.3,0.3-0.6,0.6-0.8c1-0.9,2.7-1,3.6,0c0.3,0.3,0.5,0.6,0.6,1c0.4,0.1,0.7,0.3,1,0.6
		c0.3,0.3,0.5,0.6,0.6,1c0.4,0.1,0.7,0.3,1,0.6c0.3,0.3,0.5,0.7,0.6,1.1c0.4,0.1,0.7,0.3,1,0.6c0.5,0.6,0.7,1.3,0.6,2.1c0,0,0,0,0,0
		c0,0,0.3,0.4,0.5,0.6c0.4,0.4,1.1,0.4,1.5,0c0.4-0.4,0.4-1.1,0-1.5c0,0-1.4-1.5-1.3-1.6c0.1-0.1,1.9,1.8,2,1.8
		c0.4,0.4,1.1,0.4,1.5,0c0.4-0.4,0.4-1.1,0-1.5c0,0-0.1-0.1-0.1-0.1c0,0-1.8-1.6-1.7-1.8c0.1-0.1,2.4,2,2.4,2c0.4,0.4,1,0.4,1.4,0
		c0.4-0.4,0.4-1,0.1-1.4c0,0-1.7-1.8-1.6-1.9c0.1-0.1,1.8,1.6,1.8,1.6c0.4,0.4,1.1,0.4,1.5,0C221-9.7,221-10.3,220.5-10.7
		C220.5-10.7,220.5-10.7,220.5-10.7"/>
</g>
<g>
	<path class="st1" d="M-1.6,8.6c2,0,3.6-1.6,3.6-3.6c0-2-1.6-3.6-3.6-3.6c-2,0-3.6,1.6-3.6,3.6C-5.2,7-3.6,8.6-1.6,8.6"/>
	<path class="st1" d="M10.4,10.3c1.6,0,2.9-1.3,2.9-2.9c0-1.6-1.3-2.9-2.9-2.9c-1.6,0-2.9,1.3-2.9,2.9C7.5,9,8.8,10.3,10.4,10.3"/>
	<path class="st1" d="M18,4.9c-0.2-0.3-0.5-0.4-0.8-0.4c0,0-0.1,0-0.1,0c-0.6,0-1.2,0.5-1.2,1.1c-0.1,1-0.3,2.4-0.5,2.8
		c-0.2,0.3-1.2,1.3-2.3,2.2c-0.2,0.2-0.5,0.3-0.8,0.3l-3.2,0c-0.4,0-0.7-0.1-1-0.4C7.2,9.9,6.5,9.2,6.1,8.8C6.9,8,7,7.7,7.1,7.6
		c0.6-1.2,0.9-4,1-4.6c0.1-0.8-0.5-1.6-1.4-1.7c-0.2,0-0.5,0-0.9,0.3C5.4,2,5.1,2.6,5,3.2C4.9,3.7,4.9,4.2,4.8,4.7
		C4.6,4.5,4.3,4.4,4,4.4c0,0-0.1,0-0.1,0C3.5,4.5,3.2,4.6,3,4.9C2.8,5.1,2.7,5.4,2.7,5.8c0,0.2,0.1,1,0.3,1.9C2.5,8.1,2,8.6,1.4,9.1
		C1.2,9.2,1,9.3,0.8,9.3h-4.9c-0.7-0.6-1.3-1.2-1.8-1.7C-5.8,6.8-5.7,6-5.7,5.8c0-0.3-0.1-0.6-0.3-0.9c-0.2-0.3-0.5-0.4-0.8-0.4
		c0,0-0.1,0-0.1,0c-0.3,0-0.6,0.1-0.8,0.3c-0.1-0.6-0.2-1.4-0.3-2c-0.1-0.8-0.7-1.4-1.5-1.4c-0.1,0-0.1,0-0.2,0
		c-0.4,0-0.8,0.2-1,0.5C-10.9,2.2-11,2.6-11,3c0.1,0.5,0.4,3.3,1,4.6C-9.9,7.7-9.8,8-9,8.8c-0.5,0.5-1.4,1.3-2.3,2.1h-4.3
		c-1.2-1.1-2.4-2.2-2.7-2.6c-0.2-0.4-0.4-1.8-0.5-2.8c-0.1-0.6-0.6-1.1-1.2-1.1c0,0-0.1,0-0.1,0c-0.3,0-0.6,0.2-0.8,0.4
		c-0.2,0.3-0.3,0.6-0.3,0.9c0,0.4,0.3,2.7,0.8,3.7c0.4,0.7,2.2,2.4,3.9,3.9l0,14c0,0.6,0.4,1.2,1,1.3c0.8,0.2,1.5-0.5,1.5-1.3v-7.6
		h0.8l0,7.5c0,0.6,0.4,1.2,1,1.3c0.8,0.2,1.5-0.5,1.5-1.3V13.6c1.2-1,2.5-2.2,3.3-3.1c0,0,0,0,0,0c0.8,0.7,1.5,1.4,2,1.8l0,16.6
		c0,0.8,0.5,1.5,1.3,1.6c1,0.2,1.9-0.6,1.9-1.5v-8.8h1l0,8.7c0,0.8,0.5,1.5,1.3,1.6C1.1,30.7,2,29.9,2,29L2,13
		c0-0.3,0.1-0.5,0.3-0.7c0.4-0.4,1.1-1,1.8-1.6c0.1-0.1,0.1-0.1,0.2-0.2c0.7,0.8,1.5,1.8,2.5,2.7c0.1,0.1,0.2,0.3,0.2,0.5L6.9,27.4
		c0,0.7,1.1,1.3,1.8,1.3c0.7,0,1.3-0.6,1.3-1.3v-7.6h0.8v7.6c0,0.7,0.6,1.3,1.3,1.3c0.7,0,1.7-0.6,1.7-1.3l0-13.7
		c0-0.2,0.1-0.3,0.2-0.4c1.6-1.4,3.1-3,3.5-3.8c0.5-1,0.7-3.3,0.8-3.7C18.3,5.4,18.2,5.1,18,4.9"/>
	<path class="st1" d="M-13.6,10.3c1.6,0,2.9-1.3,2.9-2.9c0-1.6-1.3-2.9-2.9-2.9s-2.9,1.3-2.9,2.9C-16.5,9-15.2,10.3-13.6,10.3"/>
</g>
</svg>
